採件数・総配分額を集計する
…
ある列の値ごとに集計を行う場合にはdplyrパッケージのgroup_by関数とsummarize関数の組み合わせが便利です。group_by関数は列名を与えることによって、その列の値ごとにグループ化してくれる関数です（グループ化してくれるだけなので、これだけでは特に何も起こりません）。summarize関数はその名が示す通り、データの要約を行なってくれる関数です。括弧の中には、「新しい変数名 = 関数（集計対象）」という形式で書いていきます。関数には合計（sum）や平均（mean）、最大値（max）、最小値（min）などなど様々な計算を行うことができます。なお、group_by関数でグループ化に用いた列名やsummarize関数で定義した新しい列以外の情報は捨象されます。以下のコードではそれ以外にも、mutate関数を使って総配分額の桁数を落とし、その値を総配分額に上書きしています。Rでは大きな桁の整数型(integer)を扱えないため、桁を落とすか数値型(numeric)への変換が必要です。

data %>% 

  # 研究機関ごとにグループ化
  group_by(研究機関) %>%　
  
  # 総配分額の単位を100万円に変換
  mutate(総配分額 = 総配分額 / 1000000) %>%
  
  # 各研究機関で行数の計算（採択件数）、総配分額の合計値の計算（総配分額合計）を実施
  summarize(採択件数 = n(), 総配分額合計 = sum(総配分額))

## # A tibble: 1,217 x 3
##    研究機関                                   採択件数 総配分額合計
##    <chr>                                         <int>        <dbl>
##  1 (医)葵鐘会                                        1         0.54
##  2 (財)古代オリエント博物館                          1         2.73
##  3 (財)冲中記念成人病研究所                          6        23.5 
##  4 LEC東京リーガルマインド大学院大学                 2         4.55
##  5 アカデミオン有限会社                              1         0.42
##  6 アニコム先進医療研究所株式会社(研究開発課)        2         8.45
##  7 いわき短期大学                                    1         4.03
##  8 オムロンサイニックエックス株式会社                1         4.16
##  9 お茶の水女子大学                                 51       229.  
## 10 くらしき作陽大学                                  1         4.42
## # ... with 1,207 more rows
…
  ## ここから新しい ##
  
  # 採択件数、総配分額合計の全国シェアを計算し、それぞれ新しい列を追加（採択件数シェア、総配分額シェア）
  mutate(採択件数シェア = 採択件数/sum(採択件数), 総配分額シェア = 総配分額合計/sum(総配分額合計)) %>%
  
  # それぞれのシェアを％に変換し、四捨五入により小数点第２位までを表示
  mutate(採択件数シェア = round(採択件数シェア * 100, 2), 総配分額シェア = round(総配分額シェア * 100, 2)) %>%
  
  # 総配分額合計の値に従い降順で並び替え
  arrange(-総配分額合計)

## # A tibble: 1,217 x 5
##    研究機関                  採択件数 総配分額合計 採択件数シェア 総配分額シェア
##    <chr>                        <int>        <dbl>          <dbl>          <dbl>
##  1 東京大学                      1975  25448060000           6.18          10.6 
##  2 京都大学                      1348  13057110000           4.22           5.47
##  3 東北大学                      1096  11841280000           3.43           4.96
##  4 大阪大学                      1102  11520740000           3.45           4.82
##  5 名古屋大学                     784   9594970000           2.45           4.02
##  6 九州大学                       759   7104810000           2.38           2.97
##  7 北海道大学                     742   6710140000           2.32           2.81
##  8 国立研究開発法人理化学研究所…      380   6099080000           1.19           2.55
##  9 筑波大学                       565   4871200000           1.77           2.04
## 10 東京工業大学                   368   4229270000           1.15           1.77
## # ... with 1,207 more rows

４.表の操作と可視化

無事に集計表ができましたが、約1200行もある上に見やすいデザインとは言えません。そこで、以下では重要な行だけを抽出して見やすい形式での出力を行います。

data %>% 
  
  group_by(研究機関) %>%　
  summarize(採択件数 = n(), 総配分額合計 = sum(総配分額)) %>%

  # ここから
  
  arrange(-総配分額合計)

## # A tibble: 1,217 x 3
##    研究機関                   採択件数 総配分額合計
##    <chr>                         <int>        <int>
##  1 金沢大学                        352   2131390000
##  2 新潟大学                        303   1993920000
##  3 東京医科歯科大学                289   1907900000
##  4 熊本大学                        264   1800130000
##  5 立命館大学                      263   1559570000
##  6 横浜国立大学                    141   1537140000
##  7 順天堂大学                      219   1501950000
##  8 東京理科大学                    180   1483580000
##  9 徳島大学                        214   1440100000
## 10 奈良先端科学技術大学院大学       91   1422430000
## # ... with 1,207 more rows
